{
	"display": {
		"icon": {
			"item": "mvstuff:adv_travel_trip",
			"data": 0
		},
		"title": { "translate": "item.mvstuff:adv_travel_trip.name" },
		"description": { "translate": "item.mvstuff:adv_travel_trip.desc" }
	},
	"parent": "mvstuff:main/root",
	"criteria": {
		"participate": {
			"trigger": "minecraft:inventory_changed",
			"conditions": {
				"items": [ { "item": "mvstuff:balagur_coin" } ]
			}
		}
	}
}