{
	"display": {
		"icon": {
			"item": "mvstuff:adv_linarius_500",
			"data": 0
		},
		"title": { "translate": "item.mvstuff:adv_linarius_500.name" },
		"description": { "translate": "item.mvstuff:adv_linarius_500.desc" }
	},
	"parent": "mvstuff:main/adv_linarius_250",
	"criteria": {
		"impossible": {
			"trigger": "minecraft:impossible",
			"conditions": {
			}
		}
	}
}