{
	"display": {
		"icon": {
			"item": "mvstuff:adv_shazan_100",
			"data": 0
		},
		"title": { "translate": "item.mvstuff:adv_shazan_100.name" },
		"description": { "translate": "item.mvstuff:adv_shazan_100.desc" }
	},
	"parent": "mvstuff:main/adv_shazan_1",
	"criteria": {
		"impossible": {
			"trigger": "minecraft:impossible",
			"conditions": {
			}
		}
	}
}