{
	"display": {
		"icon": {
			"item": "mvstuff:adv_guban_1",
			"data": 0
		},
		"title": { "translate": "item.mvstuff:adv_guban_1.name" },
		"description": { "translate": "item.mvstuff:adv_guban_1.desc" }
	},
	"parent": "mvstuff:main/root",
	"criteria": {
		"impossible": {
			"trigger": "minecraft:impossible",
			"conditions": {
			}
		}
	}
}