{
	"display": {
		"icon": {
			"item": "mvstuff:adv_vesnyak_999",
			"data": 0
		},
		"title": { "translate": "item.mvstuff:adv_vesnyak_999.name" },
		"description": { "translate": "item.mvstuff:adv_vesnyak_999.desc" },
        "frame": "challenge"
	},
	"parent": "mvstuff:main/adv_vesnyak_500",
	"criteria": {
		"impossible": {
			"trigger": "minecraft:impossible",
			"conditions": {
			}
		}
	}
}